D:\Workspaces\Eclipse\SpringBootDemo\SpringBoot01\springboot-helloworld\src\main\java\com\springboot\springboot_helloworld\Application.java
D:\Workspaces\Eclipse\SpringBootDemo\SpringBoot01\springboot-helloworld\src\main\java\com\springboot\springboot_helloworld\HelloWorldController.java
D:\Workspaces\Eclipse\SpringBootDemo\SpringBoot01\springboot-helloworld\src\main\java\com\springboot\springboot_helloworld\App.java
